{
  "Port": 9117,
  "AllowExternal": true,
  "APIKey": "49aiymngbjfeixuckm5wdx6in6zabe8p",
  "AdminPassword": null,
  "InstanceId": "3fcg3ertwtqp3588kudb4gbn6m3pyamzlc87mloiupusdnfziubm5x1r8f74hi40",
  "BlackholeDir": "",
  "UpdateDisabled": false,
  "UpdatePrerelease": false,
  "BasePathOverride": "",
  "CacheEnabled": true,
  "CacheTtl": 2100,
  "CacheMaxResultsPerIndexer": 1000,
  "FlareSolverrUrl": "",
  "OmdbApiKey": "",
  "OmdbApiUrl": "",
  "ProxyType": -1,
  "ProxyUrl": "",
  "ProxyPort": null,
  "ProxyUsername": "",
  "ProxyPassword": "",
  "ProxyIsAnonymous": true
}