[
  {
    "id": "sitelink",
    "type": "inputstring",
    "name": "Site Link",
    "value": "https://1337x.to/"
  },
  {
    "id": "cookieheader",
    "type": "hiddendata",
    "name": "CookieHeader",
    "value": "__cfduid=d59531df4baf178e6455d68a93272136f1613050864; __cf_bm=8731b95cbea31831ccd6332351c899a61b375392-1619379269-1800-AZj0CqWK9EwypynuZMC6BuAYknjDcFpAo6S1zcs3dSSa9Z5YccjVe/y7DnpgrDBNyRPra4fTvO+G4NvFW5EggOI="
  },
  {
    "id": "lasterror",
    "type": "hiddendata",
    "name": "LastError",
    "value": null
  },
  {
    "id": "downloadlink",
    "type": "inputselect",
    "name": "Download link",
    "value": "magnet:",
    "options": {
      "http://itorrents.org/": "iTorrents.org",
      "magnet:": "magnet"
    }
  },
  {
    "id": "sortrequestedfromsite",
    "type": "inputselect",
    "name": "Sort requested from site",
    "value": "time",
    "options": {
      "time": "created",
      "seeders": "seeders",
      "size": "size"
    }
  },
  {
    "id": "orderrequestedfromsite",
    "type": "inputselect",
    "name": "Order requested from site",
    "value": "desc",
    "options": {
      "desc": "desc",
      "asc": "asc"
    }
  }
]